{
  "images" : [
    {
      "idiom" : "universal",
      "filename" : "darlingStreet_240x427.jpg",
      "scale" : "1x"
    },
    {
      "idiom" : "universal",
      "filename" : "darlingStreet_480x853.jpg",
      "scale" : "2x"
    },
    {
      "idiom" : "universal",
      "filename" : "darlingStreet_720x1280.jpg",
      "scale" : "3x"
    }
  ],
  "info" : {
    "version" : 1,
    "author" : "xcode"
  }
}